{
    "page": 2,
    "per_page": 6,
    "total": 12,
    "total_pages": 2,
    "data": [
        {
            "id": 7,
            "email": "ashuisalive@gmail.com",
            "first_name": "Ashutosh",
            "last_name": "Kumar",
            "avatar": "https://reqres.in/img/faces/7-image.jpg"
        }
    ]
}